{
  "env": "local",
  "host": "http://127.0.0.1/",
  "services": {
    "service-site-gateway": {
      "baseUrl": "https://jsonplaceholder.typicode.com",
      "endpoints": {
        "getAllPosts": "posts"
      }
    }
  }
}
